Using pre-set license
Built from '2021.3/staging' branch; Version is '2021.3.9f1 (ad3870b89536) revision 11352176'; Using compiler version '192829333'; Build Type 'Release'
OS: 'Windows 10  (10.0.19044) 64bit CoreSingleLanguage' Language: 'fr' Physical Memory: 15733 MB
BatchMode: 1, IsHumanControllingUs: 0, StartBugReporterOnCrash: 0, Is64bit: 1, IsPro: 1

COMMAND LINE ARGUMENTS:
C:\Program Files\Unity\Hub\Editor\2021.3.9f1\Editor\Unity.exe
-adb2
-batchMode
-noUpm
-name
AssetImportWorker4
-projectPath
D:/Unity/Bolice
-logFile
Logs/AssetImportWorker4.log
-srvPort
62937
Successfully changed project path to: D:/Unity/Bolice
D:/Unity/Bolice
[UnityMemory] Configuration Parameters - Can be set up in boot.config
    "memorysetup-bucket-allocator-granularity=16"
    "memorysetup-bucket-allocator-bucket-count=8"
    "memorysetup-bucket-allocator-block-size=33554432"
    "memorysetup-bucket-allocator-block-count=8"
    "memorysetup-main-allocator-block-size=16777216"
    "memorysetup-thread-allocator-block-size=16777216"
    "memorysetup-gfx-main-allocator-block-size=16777216"
    "memorysetup-gfx-thread-allocator-block-size=16777216"
    "memorysetup-cache-allocator-block-size=4194304"
    "memorysetup-typetree-allocator-block-size=2097152"
    "memorysetup-profiler-bucket-allocator-granularity=16"
    "memorysetup-profiler-bucket-allocator-bucket-count=8"
    "memorysetup-profiler-bucket-allocator-block-size=33554432"
    "memorysetup-profiler-bucket-allocator-block-count=8"
    "memorysetup-profiler-allocator-block-size=16777216"
    "memorysetup-profiler-editor-allocator-block-size=1048576"
    "memorysetup-temp-allocator-size-main=16777216"
    "memorysetup-job-temp-allocator-block-size=2097152"
    "memorysetup-job-temp-allocator-block-size-background=1048576"
    "memorysetup-job-temp-allocator-reduction-small-platforms=262144"
    "memorysetup-temp-allocator-size-background-worker=32768"
    "memorysetup-temp-allocator-size-job-worker=262144"
    "memorysetup-temp-allocator-size-preload-manager=33554432"
    "memorysetup-temp-allocator-size-nav-mesh-worker=65536"
    "memorysetup-temp-allocator-size-audio-worker=65536"
    "memorysetup-temp-allocator-size-cloud-worker=32768"
    "memorysetup-temp-allocator-size-gi-baking-worker=262144"
    "memorysetup-temp-allocator-size-gfx=262144"
Refreshing native plugins compatible for Editor in 85.03 ms, found 3 plugins.
Preloading 0 native plugins for Editor in 0.00 ms.
Initialize engine version: 2021.3.9f1 (ad3870b89536)
[Subsystems] Discovering subsystems at path C:/Program Files/Unity/Hub/Editor/2021.3.9f1/Editor/Data/Resources/UnitySubsystems
[Subsystems] Discovering subsystems at path D:/Unity/Bolice/Assets
GfxDevice: creating device client; threaded=0; jobified=0
Direct3D:
    Version:  Direct3D 11.0 [level 11.1]
    Renderer: NVIDIA GeForce GTX 1650 Ti (ID=0x1f95)
    Vendor:   NVIDIA
    VRAM:     3962 MB
    Driver:   30.0.15.1278
Initialize mono
Mono path[0] = 'C:/Program Files/Unity/Hub/Editor/2021.3.9f1/Editor/Data/Managed'
Mono path[1] = 'C:/Program Files/Unity/Hub/Editor/2021.3.9f1/Editor/Data/MonoBleedingEdge/lib/mono/unityjit-win32'
Mono config path = 'C:/Program Files/Unity/Hub/Editor/2021.3.9f1/Editor/Data/MonoBleedingEdge/etc'
Using monoOptions --debugger-agent=transport=dt_socket,embedding=1,server=y,suspend=n,address=127.0.0.1:56720
Begin MonoManager ReloadAssembly
Registering precompiled unity dll's ...
Register platform support module: C:/Program Files/Unity/Hub/Editor/2021.3.9f1/Editor/Data/PlaybackEngines/AndroidPlayer/UnityEditor.Android.Extensions.dll
Register platform support module: C:/Program Files/Unity/Hub/Editor/2021.3.9f1/Editor/Data/PlaybackEngines/WindowsStandaloneSupport/UnityEditor.WindowsStandalone.Extensions.dll
Registered in 0.012793 seconds.
Native extension for WindowsStandalone target not found
Native extension for Android target not found
Refreshing native plugins compatible for Editor in 93.59 ms, found 3 plugins.
Preloading 0 native plugins for Editor in 0.00 ms.
Mono: successfully reloaded assembly
- Completed reload, in  0.870 seconds
Domain Reload Profiling:
	ReloadAssembly (871ms)
		BeginReloadAssembly (110ms)
			ExecutionOrderSort (0ms)
			DisableScriptedObjects (0ms)
			BackupInstance (0ms)
			ReleaseScriptingObjects (0ms)
			CreateAndSetChildDomain (1ms)
		EndReloadAssembly (618ms)
			LoadAssemblies (106ms)
			RebuildTransferFunctionScriptingTraits (0ms)
			SetupTypeCache (145ms)
			ReleaseScriptCaches (0ms)
			RebuildScriptCaches (34ms)
			SetupLoadedEditorAssemblies (382ms)
				LogAssemblyErrors (0ms)
				InitializePlatformSupportModulesInManaged (56ms)
				SetLoadedEditorAssemblies (0ms)
				RefreshPlugins (94ms)
				BeforeProcessingInitializeOnLoad (2ms)
				ProcessInitializeOnLoadAttributes (170ms)
				ProcessInitializeOnLoadMethodAttributes (60ms)
				AfterProcessingInitializeOnLoad (0ms)
				EditorAssembliesLoaded (0ms)
			ExecutionOrderSort2 (0ms)
			AwakeInstancesAfterBackupRestoration (0ms)
Platform modules already initialized, skipping
Registering precompiled user dll's ...
Registered in 0.005730 seconds.
Begin MonoManager ReloadAssembly
Symbol file LoadedFromMemory doesn't match image D:\Unity\Bolice\Library\PackageCache\com.unity.visualscripting@1.7.8\Editor\VisualScripting.Core\Dependencies\YamlDotNet\Unity.VisualScripting.YamlDotNet.dll
Symbol file LoadedFromMemory doesn't match image D:\Unity\Bolice\Library\PackageCache\com.unity.visualscripting@1.7.8\Editor\VisualScripting.Core\Dependencies\DotNetZip\Unity.VisualScripting.IonicZip.dll
Native extension for WindowsStandalone target not found
Native extension for Android target not found
Refreshing native plugins compatible for Editor in 0.61 ms, found 3 plugins.
Preloading 0 native plugins for Editor in 0.00 ms.
Mono: successfully reloaded assembly
- Completed reload, in  1.085 seconds
Domain Reload Profiling:
	ReloadAssembly (1086ms)
		BeginReloadAssembly (127ms)
			ExecutionOrderSort (0ms)
			DisableScriptedObjects (8ms)
			BackupInstance (0ms)
			ReleaseScriptingObjects (0ms)
			CreateAndSetChildDomain (19ms)
		EndReloadAssembly (832ms)
			LoadAssemblies (99ms)
			RebuildTransferFunctionScriptingTraits (0ms)
			SetupTypeCache (260ms)
			ReleaseScriptCaches (1ms)
			RebuildScriptCaches (50ms)
			SetupLoadedEditorAssemblies (394ms)
				LogAssemblyErrors (0ms)
				InitializePlatformSupportModulesInManaged (16ms)
				SetLoadedEditorAssemblies (0ms)
				RefreshPlugins (1ms)
				BeforeProcessingInitializeOnLoad (88ms)
				ProcessInitializeOnLoadAttributes (247ms)
				ProcessInitializeOnLoadMethodAttributes (30ms)
				AfterProcessingInitializeOnLoad (10ms)
				EditorAssembliesLoaded (0ms)
			ExecutionOrderSort2 (0ms)
			AwakeInstancesAfterBackupRestoration (6ms)
Platform modules already initialized, skipping
========================================================================
Worker process is ready to serve import requests
Launched and connected shader compiler UnityShaderCompiler.exe after 0.06 seconds
Refreshing native plugins compatible for Editor in 0.60 ms, found 3 plugins.
Preloading 0 native plugins for Editor in 0.00 ms.
Unloading 3382 Unused Serialized files (Serialized files now loaded: 0)
Unloading 27 unused Assets / (111.4 KB). Loaded Objects now: 3842.
Memory consumption went from 116.7 MB to 116.6 MB.
Total: 3.751700 ms (FindLiveObjects: 0.402700 ms CreateObjectMapping: 0.205300 ms MarkObjects: 3.019100 ms  DeleteObjects: 0.122700 ms)

AssetImportParameters requested are different than current active one (requested -> active):
  custom:video-decoder-ogg-theora: a1e56fd34408186e4bbccfd4996cb3dc -> 
  custom:container-muxer-webm: aa71ff27fc2769a1b78a27578f13a17b -> 
  custom:container-demuxer-webm: 4f35f7cbe854078d1ac9338744f61a02 -> 
  custom:video-encoder-webm-vp8: eb34c28f22e8b96e1ab97ce403110664 -> 
  custom:video-codec-MediaFoundation-h265: 746d11721c4dcdbdad8f713fa42b33f4 -> 
  custom:audio-encoder-webm-vorbis: bf7c407c2cedff20999df2af8eb42d56 -> 
  custom:framework-win-MediaFoundation: 216162199b28c13a410421893ffa2e32 -> 
  custom:container-demuxer-ogg: 62fdf1f143b41e24485cea50d1cbac27 -> 
  custom:video-decoder-webm-vp8: 9c59270c3fd7afecdb556c50c9e8de78 -> 
  custom:audio-decoder-ogg-vorbis: bf7c407c2cedff20999df2af8eb42d56 -> 
========================================================================
Received Import Request.
  Time since last request: 23349.389338 seconds.
  path: Assets/Resources/ArtWorks/Theive/theive.fbx
  artifactKey: Guid(de43da661460b9b428862bb76535ea65) Importer(815301076,1909f56bfc062723c751e8b465ee728b)
Start importing Assets/Resources/ArtWorks/Theive/theive.fbx using Guid(de43da661460b9b428862bb76535ea65) Importer(815301076,1909f56bfc062723c751e8b465ee728b)  -> (artifact id: 'cb94c34f2297955b4dbef35c34a460ec') in 0.231973 seconds 
========================================================================
Received Import Request.
  Time since last request: 380.042383 seconds.
  path: Assets/Animation/Rjabanimator.controller
  artifactKey: Guid(21cbedeeea9eaf445aa1546f36ede8e4) Importer(815301076,1909f56bfc062723c751e8b465ee728b)
Start importing Assets/Animation/Rjabanimator.controller using Guid(21cbedeeea9eaf445aa1546f36ede8e4) Importer(815301076,1909f56bfc062723c751e8b465ee728b)  -> (artifact id: 'f1cd461c36d72ef33e05114877fabb39') in 0.015997 seconds 
========================================================================
Received Import Request.
  Time since last request: 44.839346 seconds.
  path: Assets/Resources/ArtWorks/Rjab/Animations/Action Pack/Animatii/action_pack.fbx
  artifactKey: Guid(9a4bfab9092fceb4d87e81eae0c8c1f4) Importer(815301076,1909f56bfc062723c751e8b465ee728b)
Start importing Assets/Resources/ArtWorks/Rjab/Animations/Action Pack/Animatii/action_pack.fbx using Guid(9a4bfab9092fceb4d87e81eae0c8c1f4) Importer(815301076,1909f56bfc062723c751e8b465ee728b)  -> (artifact id: '8135aac78a7e75bc4de94d26e18484ab') in 0.274884 seconds 
========================================================================
Received Import Request.
  Time since last request: 0.000041 seconds.
  path: Assets/Resources/ArtWorks/Decor/Buildding_Decor/Building_Decor.fbx
  artifactKey: Guid(078bbf7895d96b940aa0775d48628edf) Importer(815301076,1909f56bfc062723c751e8b465ee728b)
Start importing Assets/Resources/ArtWorks/Decor/Buildding_Decor/Building_Decor.fbx using Guid(078bbf7895d96b940aa0775d48628edf) Importer(815301076,1909f56bfc062723c751e8b465ee728b)  -> (artifact id: '64747713051bcccf8faa6ef93353dbf9') in 0.037506 seconds 
========================================================================
Received Import Request.
  Time since last request: 0.000045 seconds.
  path: Assets/Resources/ArtWorks/Decor/Building/Building.fbx
  artifactKey: Guid(6500c167ec4e4054c8aea96591d947f8) Importer(815301076,1909f56bfc062723c751e8b465ee728b)
Start importing Assets/Resources/ArtWorks/Decor/Building/Building.fbx using Guid(6500c167ec4e4054c8aea96591d947f8) Importer(815301076,1909f56bfc062723c751e8b465ee728b)  -> (artifact id: 'ffbc7edaf29334bdfb7822f6979ccf70') in 0.036290 seconds 
========================================================================
Received Import Request.
  Time since last request: 0.000044 seconds.
  path: Assets/Resources/ArtWorks/Decor/Building/Building1.fbx
  artifactKey: Guid(e2f0ddb32fcd5e941a53c89143c3f1b9) Importer(815301076,1909f56bfc062723c751e8b465ee728b)
Start importing Assets/Resources/ArtWorks/Decor/Building/Building1.fbx using Guid(e2f0ddb32fcd5e941a53c89143c3f1b9) Importer(815301076,1909f56bfc062723c751e8b465ee728b)  -> (artifact id: '77b10930889bc03dcec5a229b5fa13c5') in 0.034067 seconds 
========================================================================
Received Import Request.
  Time since last request: 5.393947 seconds.
  path: Assets/Resources/ArtWorks/Theive/Animation/draw_sword_1.fbx
  artifactKey: Guid(4032c04d42e138e41ae54890bbe3140f) Importer(815301076,1909f56bfc062723c751e8b465ee728b)
Start importing Assets/Resources/ArtWorks/Theive/Animation/draw_sword_1.fbx using Guid(4032c04d42e138e41ae54890bbe3140f) Importer(815301076,1909f56bfc062723c751e8b465ee728b)  -> (artifact id: '8fb1b61b7dbaa01ea07dddf9a28ae206') in 0.052746 seconds 
========================================================================
Received Import Request.
  Time since last request: 0.060972 seconds.
  path: Assets/Resources/ArtWorks/Decor/Flag/Flag.fbx
  artifactKey: Guid(1be31db73009c7e4e887e036fc7255cf) Importer(815301076,1909f56bfc062723c751e8b465ee728b)
Start importing Assets/Resources/ArtWorks/Decor/Flag/Flag.fbx using Guid(1be31db73009c7e4e887e036fc7255cf) Importer(815301076,1909f56bfc062723c751e8b465ee728b)  -> (artifact id: 'f15707c6927c3abe144e369e808bb5d7') in 0.045488 seconds 
========================================================================
Received Import Request.
  Time since last request: 0.596023 seconds.
  path: Assets/Resources/ArtWorks/Gun/m4.fbx
  artifactKey: Guid(486ff795001d6254f869da7ee413e9b7) Importer(815301076,1909f56bfc062723c751e8b465ee728b)
Start importing Assets/Resources/ArtWorks/Gun/m4.fbx using Guid(486ff795001d6254f869da7ee413e9b7) Importer(815301076,1909f56bfc062723c751e8b465ee728b)  -> (artifact id: 'fbb60705ce53b74994b1a55a97e9589b') in 0.047581 seconds 
========================================================================
Received Import Request.
  Time since last request: 0.401734 seconds.
  path: Assets/Resources/ArtWorks/Decor/Object_Decor1/Object_Decor1.fbx
  artifactKey: Guid(d291817a08d46604ba69df28b1de535f) Importer(815301076,1909f56bfc062723c751e8b465ee728b)
Start importing Assets/Resources/ArtWorks/Decor/Object_Decor1/Object_Decor1.fbx using Guid(d291817a08d46604ba69df28b1de535f) Importer(815301076,1909f56bfc062723c751e8b465ee728b)  -> (artifact id: 'ab095bafad646a4a00ecdb452ad33e81') in 0.040407 seconds 
========================================================================
Received Import Request.
  Time since last request: 0.018618 seconds.
  path: Assets/Resources/ArtWorks/Decor/Object_Decor3/Object_Decor3.fbx
  artifactKey: Guid(db4967b690a2c834ab350a2f6d9c8861) Importer(815301076,1909f56bfc062723c751e8b465ee728b)
Start importing Assets/Resources/ArtWorks/Decor/Object_Decor3/Object_Decor3.fbx using Guid(db4967b690a2c834ab350a2f6d9c8861) Importer(815301076,1909f56bfc062723c751e8b465ee728b)  -> (artifact id: 'b00b55fb71272693d7194d5a4cfe42b9') in 0.026967 seconds 
========================================================================
Received Import Request.
  Time since last request: 0.398170 seconds.
  path: Assets/Resources/ArtWorks/Decor/Object_Decor5/Object_Decor5.fbx
  artifactKey: Guid(8c2e8638a45d94d4f9ed755539de86c1) Importer(815301076,1909f56bfc062723c751e8b465ee728b)
Start importing Assets/Resources/ArtWorks/Decor/Object_Decor5/Object_Decor5.fbx using Guid(8c2e8638a45d94d4f9ed755539de86c1) Importer(815301076,1909f56bfc062723c751e8b465ee728b)  -> (artifact id: 'f8828f2f8d9bcd2c3be86662c5de745e') in 0.026876 seconds 
========================================================================
Received Import Request.
  Time since last request: 0.647997 seconds.
  path: Assets/Resources/ArtWorks/Decor/Setirna/Setirna.fbx
  artifactKey: Guid(38d8f383e627fc749b8dc3ebe5892f9e) Importer(815301076,1909f56bfc062723c751e8b465ee728b)
Start importing Assets/Resources/ArtWorks/Decor/Setirna/Setirna.fbx using Guid(38d8f383e627fc749b8dc3ebe5892f9e) Importer(815301076,1909f56bfc062723c751e8b465ee728b)  -> (artifact id: 'e83cd67f43734fdff420db147e636e5e') in 0.067826 seconds 
========================================================================
Received Import Request.
  Time since last request: 0.314051 seconds.
  path: Assets/Resources/ArtWorks/Theive/Animation/sheath_sword_2.fbx
  artifactKey: Guid(6bf0ffce9a30dc147b67780191ad9458) Importer(815301076,1909f56bfc062723c751e8b465ee728b)
Start importing Assets/Resources/ArtWorks/Theive/Animation/sheath_sword_2.fbx using Guid(6bf0ffce9a30dc147b67780191ad9458) Importer(815301076,1909f56bfc062723c751e8b465ee728b)  -> (artifact id: '900b177efc9d88097f0724d87719ec7c') in 0.040373 seconds 
========================================================================
Received Import Request.
  Time since last request: 0.474241 seconds.
  path: Assets/Resources/ArtWorks/Theive/Animation/sword_and_shield_180_turn (1).fbx
  artifactKey: Guid(82a9083a9bea4f84580316ff36aeaad7) Importer(815301076,1909f56bfc062723c751e8b465ee728b)
Start importing Assets/Resources/ArtWorks/Theive/Animation/sword_and_shield_180_turn (1).fbx using Guid(82a9083a9bea4f84580316ff36aeaad7) Importer(815301076,1909f56bfc062723c751e8b465ee728b)  -> (artifact id: '7efd4ebc82cb46d93d8523bcc6ff3c0e') in 0.045522 seconds 
Editor requested this worker to shutdown with reason: Scaling down because of idle timeout
AssetImportWorker is now disconnected from the server
Process exiting
Exiting without the bug reporter. Application will terminate with return code 0